module codeberg.org/timurmobi/turn/v2

go 1.13

require (
	github.com/pion/logging v0.2.2
	github.com/pion/randutil v0.1.0
	github.com/pion/stun v0.3.5
	github.com/pion/transport v0.12.3
	github.com/pion/turn/v2 v2.0.5
	github.com/stretchr/testify v1.7.0
)
